[+] Containers:
 |- [+] Container: /Game/Wizard/Maps/TopDownMap
 |   |- [+] ActorDescs:
 |   |   |- Guid:030B03B24C5DF8C59D38099355584D22 BaseClass:/Game/JakeStuff/RandomTrap.RandomTrap_C NativeClass:/Script/Engine.Actor Name:RandomTrap_C_UAID_D85ED30B591C097F01_1700664856 Label:RandomTrap2 SpatiallyLoaded:1 Bounds:IsValid=true, Min=(X=2660.000 Y=3840.000 Z=390.000), Max=(X=2660.000 Y=3840.000 Z=390.000) RuntimeGrid:None EditorOnly:0 RuntimeOnly:0 HLODRelevant:0
 |   |   |- Guid:03D4D9B344F9B95C8C46228D6FE2B7B9 BaseClass: NativeClass:/Script/Engine.StaticMeshActor Name:StaticMeshActor_UAID_D4548B0A710B297801_1131362142 Label:SM_Ramp13 SpatiallyLoaded:1 Bounds:IsValid=true, Min=(X=490.000 Y=2810.000 Z=-10.000), Max=(X=990.000 Y=3210.000 Z=390.000) RuntimeGrid:None EditorOnly:0 RuntimeOnly:0 HLODRelevant:1 FolderPath:Obsticles FolderGuid:05583462482018D74864B98792E160FE
 |   |   |- Guid:053F3B45485B4D4E6BF6C98EF0123BCD BaseClass: NativeClass:/Script/Engine.StaticMeshActor Name:StaticMeshActor_UAID_D4548B0A710B287801_2006132946 Label:SM_Cube13 SpatiallyLoaded:1 Bounds:IsValid=true, Min=(X=1990.000 Y=2000.000 Z=-10.000), Max=(X=2090.000 Y=2400.000 Z=490.000) RuntimeGrid:None EditorOnly:0 RuntimeOnly:0 HLODRelevant:1 FolderPath:Obsticles FolderGuid:05583462482018D74864B98792E160FE
 |   |   |- Guid:07470EE742E41B8335E34D99E398C23D BaseClass: NativeClass:/Script/Engine.StaticMeshActor Name:StaticMeshActor_UAID_D4548B0A710B297801_2131035158 Label:SM_Cylinder9 SpatiallyLoaded:1 Bounds:IsValid=true, Min=(X=270.000 Y=5610.000 Z=390.000), Max=(X=470.000 Y=5810.000 Z=391.000) RuntimeGrid:None EditorOnly:0 RuntimeOnly:0 HLODRelevant:1
 |   |   |- Guid:0F4324B34E091887A24AD9995AE727D1 BaseClass: NativeClass:/Script/Engine.StaticMeshActor Name:StaticMeshActor_23 Label:SM_Cube6 SpatiallyLoaded:1 Bounds:IsValid=true, Min=(X=2900.000 Y=100.000 Z=0.000), Max=(X=3000.000 Y=6000.000 Z=1000.000) RuntimeGrid:None EditorOnly:0 RuntimeOnly:0 HLODRelevant:1 FolderPath:Borders FolderGuid:9FE5E8B349AF71F05F2688921F3F2AC5
 |   |   |- Guid:106563D5414FAD0844FBDCBEAC7AF29D BaseClass: NativeClass:/Script/Engine.StaticMeshActor Name:StaticMeshActor_42 Label:SM_ChamferCube SpatiallyLoaded:1 Bounds:IsValid=true, Min=(X=931.762 Y=1393.712 Z=0.063), Max=(X=1072.646 Y=1534.595 Z=100.063) RuntimeGrid:None EditorOnly:0 RuntimeOnly:0 HLODRelevant:0 FolderPath:Interactive cubes FolderGuid:4A4BEB094627B72155B91EA26F7A65BE
 |   |   |- Guid:10E39151439FC86A7ABEDEB160020E32 BaseClass:/Game/JakeStuff/RandomTrap.RandomTrap_C NativeClass:/Script/Engine.Actor Name:RandomTrap_C_UAID_D85ED30B591C097F01_1710438858 Label:RandomTrap4 SpatiallyLoaded:1 Bounds:IsValid=true, Min=(X=2630.000 Y=2280.000 Z=390.000), Max=(X=2630.000 Y=2280.000 Z=390.000) RuntimeGrid:None EditorOnly:0 RuntimeOnly:0 HLODRelevant:0
 |   |   |- Guid:1179F3DE448B347019826086C5ABC6C2 BaseClass: NativeClass:/Script/Engine.StaticMeshActor Name:StaticMeshActor_UAID_D4548B0A710B297801_1196540145 Label:SM_ChamferCube2 SpatiallyLoaded:1 Bounds:IsValid=true, Min=(X=1658.118 Y=3770.068 Z=0.063), Max=(X=1786.290 Y=3898.239 Z=100.063) RuntimeGrid:None EditorOnly:0 RuntimeOnly:0 HLODRelevant:0 FolderPath:Interactive FolderGuid:C7BA79F943EAB954570385A5BF387224
 |   |   |- Guid:118DBD31455F1F3FE52941BF3869F01C BaseClass: NativeClass:/Script/Engine.StaticMeshActor Name:StaticMeshActor_UAID_D4548B0A710B287801_2094706959 Label:SM_Cube18 SpatiallyLoaded:1 Bounds:IsValid=true, Min=(X=490.000 Y=3600.000 Z=-10.000), Max=(X=890.000 Y=4000.000 Z=390.000) RuntimeGrid:None EditorOnly:0 RuntimeOnly:0 HLODRelevant:1 FolderPath:Obsticles FolderGuid:05583462482018D74864B98792E160FE
 |   |   |- Guid:147C8D134B12D635012D5F8C57D2C96F BaseClass: NativeClass:/Script/Engine.PostProcessVolume Name:PostProcessVolume_1 Label:PostProcessVolume SpatiallyLoaded:0 Bounds:IsValid=true, Min=(X=0.000 Y=0.000 Z=400.000), Max=(X=200.000 Y=200.000 Z=600.000) RuntimeGrid:None EditorOnly:0 RuntimeOnly:0 HLODRelevant:0
 |   |   |- Guid:14A0A60849D08AAEAD729EB773A2E4AB BaseClass: NativeClass:/Script/Engine.StaticMeshActor Name:StaticMeshActor_UAID_D4548B0A710B297801_1211102146 Label:SM_ChamferCube7 SpatiallyLoaded:1 Bounds:IsValid=true, Min=(X=1071.867 Y=3362.081 Z=0.063), Max=(X=1208.470 Y=3498.683 Z=100.063) RuntimeGrid:None EditorOnly:0 RuntimeOnly:0 HLODRelevant:0 FolderPath:Interactive FolderGuid:C7BA79F943EAB954570385A5BF387224
 |   |   |- Guid:160878CC460F3FE8D6D374AE09D51E89 BaseClass: NativeClass:/Script/Engine.StaticMeshActor Name:StaticMeshActor_UAID_D4548B0A710B297801_2101307154 Label:SM_Cylinder5 SpatiallyLoaded:1 Bounds:IsValid=true, Min=(X=2590.000 Y=200.000 Z=390.000), Max=(X=2790.000 Y=400.000 Z=391.000) RuntimeGrid:None EditorOnly:0 RuntimeOnly:0 HLODRelevant:1
 |   |   |- Guid:1742DF43475F097453197AA79C7473D9 BaseClass: NativeClass:/Script/Engine.SkyLight Name:SkyLight_1 Label:SkyLight SpatiallyLoaded:0 Bounds:IsValid=true, Min=(X=0.000 Y=0.000 Z=690.000), Max=(X=0.000 Y=0.000 Z=690.000) RuntimeGrid:None EditorOnly:0 RuntimeOnly:0 HLODRelevant:0 FolderPath:Lighting FolderGuid:4C9334684BA61B42C769F799D2576455
 |   |   |- Guid:194523FD4D0A8D2E141E10940B43B3CA BaseClass: NativeClass:/Script/Engine.StaticMeshActor Name:StaticMeshActor_UAID_D4548B0A710B287801_2094701956 Label:SM_Ramp11 SpatiallyLoaded:1 Bounds:IsValid=true, Min=(X=2100.000 Y=3600.000 Z=390.000), Max=(X=2500.000 Y=4000.000 Z=590.000) RuntimeGrid:None EditorOnly:0 RuntimeOnly:0 HLODRelevant:1 FolderPath:Obsticles FolderGuid:05583462482018D74864B98792E160FE
 |   |   |- Guid:1A5FCF4B41BBF500586F519E20444CFE BaseClass: NativeClass:/Script/Engine.StaticMeshActor Name:StaticMeshActor_UAID_D4548B0A710B287801_1502208930 Label:SM_Ramp3 SpatiallyLoaded:1 Bounds:IsValid=true, Min=(X=490.000 Y=500.000 Z=-10.000), Max=(X=990.000 Y=900.000 Z=390.000) RuntimeGrid:None EditorOnly:0 RuntimeOnly:0 HLODRelevant:1 FolderPath:Obsticles FolderGuid:05583462482018D74864B98792E160FE
 |   |   |- Guid:1D4DDBCB40CB7E54BE04A4833F4CEBD1 BaseClass: NativeClass:/Script/Engine.StaticMeshActor Name:StaticMeshActor_UAID_D4548B0A710B287801_1333696926 Label:SM_Ramp SpatiallyLoaded:1 Bounds:IsValid=true, Min=(X=590.000 Y=100.000 Z=390.000), Max=(X=990.000 Y=500.000 Z=590.000) RuntimeGrid:None EditorOnly:0 RuntimeOnly:0 HLODRelevant:1 FolderPath:Obsticles FolderGuid:05583462482018D74864B98792E160FE
 |   |   |- Guid:1EA56A3146AC7DF12D0E3B9C1C2ABE6A BaseClass: NativeClass:/Script/Engine.StaticMeshActor Name:StaticMeshActor_UAID_D4548B0A710B287801_1616177932 Label:SM_Ramp4 SpatiallyLoaded:1 Bounds:IsValid=true, Min=(X=1990.000 Y=500.000 Z=-10.000), Max=(X=2490.000 Y=900.000 Z=390.000) RuntimeGrid:None EditorOnly:0 RuntimeOnly:0 HLODRelevant:1 FolderPath:Obsticles FolderGuid:05583462482018D74864B98792E160FE
 |   |   |- Guid:1FEC8FAC495CEF0CE32492ADCBB96BAE BaseClass: NativeClass:/Script/AIModule.NavLinkProxy Name:NavLinkProxy_3 Label:NavLinkProxy3 SpatiallyLoaded:1 Bounds:IsValid=true, Min=(X=2240.000 Y=1030.000 Z=90.000), Max=(X=2240.000 Y=1030.000 Z=90.000) RuntimeGrid:None EditorOnly:0 RuntimeOnly:0 HLODRelevant:0 FolderPath:Navigation FolderGuid:AE45D61F453CC144CF8289862C276E89
 |   |   |- Guid:2169CB5C470E0E674279BA96829753DD BaseClass: NativeClass:/Script/Engine.StaticMeshActor Name:StaticMeshActor_17 Label:SM_Cube SpatiallyLoaded:1 Bounds:IsValid=true, Min=(X=0.000 Y=0.000 Z=-50.000), Max=(X=3000.000 Y=6000.000 Z=-0.000) RuntimeGrid:None EditorOnly:0 RuntimeOnly:0 HLODRelevant:1 FolderPath:Borders FolderGuid:9FE5E8B349AF71F05F2688921F3F2AC5
 |   |   |- Guid:22268DBE4A62C53DE28625B626A5B1EE BaseClass: NativeClass:/Script/Engine.StaticMeshActor Name:StaticMeshActor_UAID_D4548B0A710B287801_2094711963 Label:SM_Cube19 SpatiallyLoaded:1 Bounds:IsValid=true, Min=(X=890.000 Y=3600.000 Z=-10.000), Max=(X=990.000 Y=4000.000 Z=490.000) RuntimeGrid:None EditorOnly:0 RuntimeOnly:0 HLODRelevant:1 FolderPath:Obsticles FolderGuid:05583462482018D74864B98792E160FE
 |   |   |- Guid:267DB9174DD522C6B42609B65BCB70F1 BaseClass: NativeClass:/Script/Engine.StaticMeshActor Name:StaticMeshActor_UAID_D4548B0A710B287801_1853831938 Label:SM_Ramp5 SpatiallyLoaded:1 Bounds:IsValid=true, Min=(X=480.000 Y=2000.000 Z=390.000), Max=(X=880.000 Y=2400.000 Z=590.000) RuntimeGrid:None EditorOnly:0 RuntimeOnly:0 HLODRelevant:1 FolderPath:Obsticles FolderGuid:05583462482018D74864B98792E160FE
 |   |   |- Guid:2CE787C24C14EAFF9F6C65B191124D69 BaseClass: NativeClass:/Script/Engine.StaticMeshActor Name:StaticMeshActor_UAID_D4548B0A710B277801_2025499747 Label:SM_Cube7 SpatiallyLoaded:1 Bounds:IsValid=true, Min=(X=2490.000 Y=110.000 Z=-10.000), Max=(X=2890.000 Y=5910.000 Z=390.000) RuntimeGrid:None EditorOnly:0 RuntimeOnly:0 HLODRelevant:1 FolderPath:Obsticles FolderGuid:05583462482018D74864B98792E160FE
 |   |   |- Guid:306929B142C99B3AD97B3C9F251C2129 BaseClass: NativeClass:/Script/Engine.StaticMeshActor Name:StaticMeshActor_22 Label:SM_Cube5 SpatiallyLoaded:1 Bounds:IsValid=true, Min=(X=-10.000 Y=100.000 Z=0.000), Max=(X=90.000 Y=6000.000 Z=475.000) RuntimeGrid:None EditorOnly:0 RuntimeOnly:0 HLODRelevant:0 FolderPath:Borders FolderGuid:9FE5E8B349AF71F05F2688921F3F2AC5
 |   |   |- Guid:372A06DB44D1B1E5567AA98362912412 BaseClass: NativeClass:/Script/Engine.StaticMeshActor Name:StaticMeshActor_UAID_D4548B0A710B287801_2094703957 Label:SM_QuarterCylinder3 SpatiallyLoaded:1 Bounds:IsValid=true, Min=(X=2000.000 Y=3600.000 Z=490.000), Max=(X=2100.000 Y=4000.000 Z=590.000) RuntimeGrid:None EditorOnly:0 RuntimeOnly:0 HLODRelevant:1
 |   |   |- Guid:375514874D158AF800A9599AF6595664 BaseClass: NativeClass:/Script/Engine.StaticMeshActor Name:StaticMeshActor_UAID_D4548B0A710B287801_2006126942 Label:SM_Cube12 SpatiallyLoaded:1 Bounds:IsValid=true, Min=(X=2090.000 Y=2000.000 Z=-10.000), Max=(X=2490.000 Y=2400.000 Z=390.000) RuntimeGrid:None EditorOnly:0 RuntimeOnly:0 HLODRelevant:1 FolderPath:Obsticles FolderGuid:05583462482018D74864B98792E160FE
 |   |   |- Guid:38465B2E43E5D0BA36049F955CAF4C4E BaseClass: NativeClass:/Script/Engine.StaticMeshActor Name:StaticMeshActor_UAID_D4548B0A710B297801_1214539147 Label:SM_ChamferCube8 SpatiallyLoaded:1 Bounds:IsValid=true, Min=(X=1081.867 Y=4992.081 Z=0.063), Max=(X=1218.470 Y=5128.683 Z=100.063) RuntimeGrid:None EditorOnly:0 RuntimeOnly:0 HLODRelevant:0 FolderPath:Interactive FolderGuid:C7BA79F943EAB954570385A5BF387224
 |   |   |- Guid:4356C64C4BEA7966EA86F6ACDA8E9838 BaseClass:/Game/Wizard/Blueprints/BP_Wizard.BP_Wizard_C NativeClass:/Script/Engine.Character Name:BP_Wizard_C_UAID_D4548B0A710B2A7801_1435104335 Label:BP_Wizard2_P1 SpatiallyLoaded:1 Bounds:IsValid=true, Min=(X=2190.000 Y=-200.000 Z=260.000), Max=(X=3190.000 Y=800.000 Z=760.000) RuntimeGrid:None EditorOnly:0 RuntimeOnly:0 HLODRelevant:0
 |   |   |- Guid:4747D76B42BEFBC734BFCEB57C7C4A27 BaseClass: NativeClass:/Script/Engine.StaticMeshActor Name:StaticMeshActor_UAID_D4548B0A710B287801_2142317965 Label:SM_Cylinder3 SpatiallyLoaded:1 Bounds:IsValid=true, Min=(X=1190.000 Y=2700.000 Z=0.000), Max=(X=1790.000 Y=3300.000 Z=600.000) RuntimeGrid:None EditorOnly:0 RuntimeOnly:0 HLODRelevant:1
 |   |   |- Guid:47E6D90A41AFFA11567D0D820534DED0 BaseClass: NativeClass:/Script/Engine.StaticMeshActor Name:StaticMeshActor_UAID_D4548B0A710B287801_2094697953 Label:SM_Cube16 SpatiallyLoaded:1 Bounds:IsValid=true, Min=(X=2100.000 Y=3600.000 Z=-10.000), Max=(X=2500.000 Y=4000.000 Z=390.000) RuntimeGrid:None EditorOnly:0 RuntimeOnly:0 HLODRelevant:1 FolderPath:Obsticles FolderGuid:05583462482018D74864B98792E160FE
 |   |   |- Guid:485B44AB40243089C3ABE59464E5C3B9 BaseClass: NativeClass:/Script/Engine.StaticMeshActor Name:StaticMeshActor_UAID_D4548B0A710B287801_2094709962 Label:SM_QuarterCylinder4 SpatiallyLoaded:1 Bounds:IsValid=true, Min=(X=890.000 Y=3600.000 Z=490.000), Max=(X=990.000 Y=4000.000 Z=590.000) RuntimeGrid:None EditorOnly:0 RuntimeOnly:0 HLODRelevant:1
 |   |   |- Guid:497D4E254F036E70513B74A40ACB4A60 BaseClass: NativeClass:/Script/Engine.StaticMeshActor Name:StaticMeshActor_UAID_D4548B0A710B297801_2131034157 Label:SM_Cylinder8 SpatiallyLoaded:1 Bounds:IsValid=true, Min=(X=2590.000 Y=5610.000 Z=390.000), Max=(X=2790.000 Y=5810.000 Z=391.000) RuntimeGrid:None EditorOnly:0 RuntimeOnly:0 HLODRelevant:1
 |   |   |- Guid:4A317BC1408D8A90DAE6A2B5AEEB6153 BaseClass:/Game/JakeStuff/RandomTrap.RandomTrap_C NativeClass:/Script/Engine.Actor Name:RandomTrap_C_UAID_D85ED30B591C097F01_1697324855 Label:RandomTrap SpatiallyLoaded:1 Bounds:IsValid=true, Min=(X=230.000 Y=3840.000 Z=390.000), Max=(X=230.000 Y=3840.000 Z=390.000) RuntimeGrid:None EditorOnly:0 RuntimeOnly:0 HLODRelevant:0
 |   |   |- Guid:4F336D9449D3FA1193BC2DAAB0565304 BaseClass: NativeClass:/Script/Engine.StaticMeshActor Name:StaticMeshActor_UAID_D4548B0A710B287801_2094708961 Label:SM_Ramp12 SpatiallyLoaded:1 Bounds:IsValid=true, Min=(X=490.000 Y=3600.000 Z=390.000), Max=(X=890.000 Y=4000.000 Z=590.000) RuntimeGrid:None EditorOnly:0 RuntimeOnly:0 HLODRelevant:1 FolderPath:Obsticles FolderGuid:05583462482018D74864B98792E160FE
 |   |   |- Guid:5237FBFC4ED9FBF1E418C9B7991BEF44 BaseClass: NativeClass:/Script/Engine.StaticMeshActor Name:StaticMeshActor_UAID_D4548B0A710B287801_1956101940 Label:SM_Cube11 SpatiallyLoaded:1 Bounds:IsValid=true, Min=(X=880.000 Y=2000.000 Z=-10.000), Max=(X=980.000 Y=2400.000 Z=490.000) RuntimeGrid:None EditorOnly:0 RuntimeOnly:0 HLODRelevant:1 FolderPath:Obsticles FolderGuid:05583462482018D74864B98792E160FE
 |   |   |- Guid:53544C7946C25E5AE6F9B5BAE67879D2 BaseClass: NativeClass:/Script/Engine.StaticMeshActor Name:StaticMeshActor_UAID_D4548B0A710B287801_2094693950 Label:SM_Ramp8 SpatiallyLoaded:1 Bounds:IsValid=true, Min=(X=590.000 Y=5500.000 Z=390.000), Max=(X=990.000 Y=5900.000 Z=590.000) RuntimeGrid:None EditorOnly:0 RuntimeOnly:0 HLODRelevant:1 FolderPath:Obsticles FolderGuid:05583462482018D74864B98792E160FE
 |   |   |- Guid:546ACEA449A70E444BD39C87FE274140 BaseClass: NativeClass:/Script/Engine.StaticMeshActor Name:StaticMeshActor_UAID_D4548B0A710B287801_2094692949 Label:SM_Ramp7 SpatiallyLoaded:1 Bounds:IsValid=true, Min=(X=1990.000 Y=5500.000 Z=390.000), Max=(X=2390.000 Y=5900.000 Z=590.000) RuntimeGrid:None EditorOnly:0 RuntimeOnly:0 HLODRelevant:1 FolderPath:Obsticles FolderGuid:05583462482018D74864B98792E160FE
 |   |   |- Guid:5671A32544BE3FD3EFF5FFAA4CBA0D59 BaseClass: NativeClass:/Script/Engine.StaticMeshActor Name:StaticMeshActor_UAID_D4548B0A710B297801_1196537144 Label:SM_ChamferCube6 SpatiallyLoaded:1 Bounds:IsValid=true, Min=(X=1671.867 Y=3612.081 Z=0.063), Max=(X=1808.470 Y=3748.683 Z=100.063) RuntimeGrid:None EditorOnly:0 RuntimeOnly:0 HLODRelevant:0 FolderPath:Interactive FolderGuid:C7BA79F943EAB954570385A5BF387224
 |   |   |- Guid:6252C7D64ACF162A73EE65B11FE214D1 BaseClass: NativeClass:/Script/Engine.SkyAtmosphere Name:SkyAtmosphere_1 Label:SkyAtmosphere SpatiallyLoaded:0 Bounds:IsValid=true, Min=(X=0.000 Y=0.000 Z=1020.000), Max=(X=0.000 Y=0.000 Z=1020.000) RuntimeGrid:None EditorOnly:0 RuntimeOnly:0 HLODRelevant:0 FolderPath:Lighting FolderGuid:4C9334684BA61B42C769F799D2576455
 |   |   |- Guid:63ACDA4A40317D5B1DE8D988C5A73A8A BaseClass:/Game/Wizard/Blueprints/BP_Wizard.BP_Wizard_C NativeClass:/Script/Engine.Character Name:BP_Wizard_C_UAID_D4548B0A710BE47701_1560954951 Label:BP_Wizard1_P0 SpatiallyLoaded:1 Bounds:IsValid=true, Min=(X=-130.000 Y=5210.000 Z=260.000), Max=(X=870.000 Y=6210.000 Z=760.000) RuntimeGrid:None EditorOnly:0 RuntimeOnly:0 HLODRelevant:0
 |   |   |- Guid:66BCBF874D2A22ADC6523B95EE812CA3 BaseClass: NativeClass:/Script/Engine.StaticMeshActor Name:StaticMeshActor_UAID_A4AE111137DC5CFB00_1660657071 Label:SM_SkySphere SpatiallyLoaded:0 Bounds:IsValid=true, Min=(X=-1638400.000 Y=-1638400.000 Z=-1638400.000), Max=(X=1638400.000 Y=1638400.000 Z=1638400.000) RuntimeGrid:None EditorOnly:0 RuntimeOnly:0 HLODRelevant:1 FolderPath:Lighting FolderGuid:4C9334684BA61B42C769F799D2576455
 |   |   |- Guid:708BBF6B4CAF958315404F87AAFFF3B5 BaseClass:/Game/Wizard/Blueprints/BP_Wizard.BP_Wizard_C NativeClass:/Script/Engine.Character Name:BP_Wizard_C_UAID_D4548B0A710B117801_2124595872 Label:BP_Wizard1_P1 SpatiallyLoaded:1 Bounds:IsValid=true, Min=(X=990.000 Y=-200.000 Z=460.000), Max=(X=1990.000 Y=800.000 Z=960.000) RuntimeGrid:None EditorOnly:0 RuntimeOnly:0 HLODRelevant:0
 |   |   |- Guid:73EDC965474AB33D96ABC2A388A5809D BaseClass: NativeClass:/Script/Engine.StaticMeshActor Name:StaticMeshActor_UAID_D4548B0A710B287801_2094695951 Label:SM_Ramp9 SpatiallyLoaded:1 Bounds:IsValid=true, Min=(X=1990.000 Y=5100.000 Z=-10.000), Max=(X=2490.000 Y=5500.000 Z=390.000) RuntimeGrid:None EditorOnly:0 RuntimeOnly:0 HLODRelevant:1 FolderPath:Obsticles FolderGuid:05583462482018D74864B98792E160FE
 |   |   |- Guid:77F893B3468595EE782136AD620D7EF4 BaseClass: NativeClass:/Script/Engine.VolumetricCloud Name:VolumetricCloud_0 Label:VolumetricCloud SpatiallyLoaded:0 Bounds:IsValid=true, Min=(X=0.000 Y=0.000 Z=820.000), Max=(X=0.000 Y=0.000 Z=820.000) RuntimeGrid:None EditorOnly:0 RuntimeOnly:0 HLODRelevant:0 FolderPath:Lighting FolderGuid:4C9334684BA61B42C769F799D2576455
 |   |   |- Guid:78ED5DE144831EA753EBD592DF6605BE BaseClass: NativeClass:/Script/Engine.StaticMeshActor Name:StaticMeshActor_UAID_D4548B0A710B287801_2006129944 Label:SM_Ramp6 SpatiallyLoaded:1 Bounds:IsValid=true, Min=(X=2090.000 Y=2000.000 Z=390.000), Max=(X=2490.000 Y=2400.000 Z=590.000) RuntimeGrid:None EditorOnly:0 RuntimeOnly:0 HLODRelevant:1 FolderPath:Obsticles FolderGuid:05583462482018D74864B98792E160FE
 |   |   |- Guid:7FA5B0B94EEF133B8B5C95B55809D87B BaseClass:/Game/JakeStuff/RandomTrap.RandomTrap_C NativeClass:/Script/Engine.Actor Name:RandomTrap_C_UAID_D85ED30B591C097F01_1706665857 Label:RandomTrap3 SpatiallyLoaded:1 Bounds:IsValid=true, Min=(X=230.000 Y=2210.000 Z=390.000), Max=(X=230.000 Y=2210.000 Z=390.000) RuntimeGrid:None EditorOnly:0 RuntimeOnly:0 HLODRelevant:0
 |   |   |- Guid:8069BD25448B58C1666D2EBE3F911FD2 BaseClass: NativeClass:/Script/Engine.StaticMeshActor Name:StaticMeshActor_UAID_D4548B0A710B287801_2006131945 Label:SM_QuarterCylinder2 SpatiallyLoaded:1 Bounds:IsValid=true, Min=(X=1990.000 Y=2000.000 Z=490.000), Max=(X=2090.000 Y=2400.000 Z=590.000) RuntimeGrid:None EditorOnly:0 RuntimeOnly:0 HLODRelevant:1
 |   |   |- Guid:833B515243C1EA4F295133929F543595 BaseClass: NativeClass:/Script/Engine.StaticMeshActor Name:StaticMeshActor_UAID_D4548B0A710B287801_1786297936 Label:SM_Cylinder SpatiallyLoaded:1 Bounds:IsValid=true, Min=(X=1290.000 Y=1390.000 Z=0.000), Max=(X=1690.000 Y=1790.000 Z=400.000) RuntimeGrid:None EditorOnly:0 RuntimeOnly:0 HLODRelevant:1
 |   |   |- Guid:86C4017B434D0AF5ACFC179906AE325A BaseClass: NativeClass:/Script/Engine.StaticMeshActor Name:StaticMeshActor_UAID_D4548B0A710B297801_2131033156 Label:SM_Cylinder7 SpatiallyLoaded:1 Bounds:IsValid=true, Min=(X=1390.000 Y=5610.000 Z=590.000), Max=(X=1590.000 Y=5810.000 Z=591.000) RuntimeGrid:None EditorOnly:0 RuntimeOnly:0 HLODRelevant:1
 |   |   |- Guid:9722404148D3C68A81F6D1AE5541FBEB BaseClass: NativeClass:/Script/Engine.StaticMeshActor Name:StaticMeshActor_UAID_D4548B0A710B297801_2119625155 Label:SM_Cylinder6 SpatiallyLoaded:1 Bounds:IsValid=true, Min=(X=180.000 Y=200.000 Z=390.000), Max=(X=380.000 Y=400.000 Z=391.000) RuntimeGrid:None EditorOnly:0 RuntimeOnly:0 HLODRelevant:1
 |   |   |- Guid:97CC0EBC40AF4143F0AFA6859B563AD0 BaseClass: NativeClass:/Script/Engine.StaticMeshActor Name:StaticMeshActor_UAID_D4548B0A710B297801_1333792151 Label:SM_Cylinder4 SpatiallyLoaded:1 Bounds:IsValid=true, Min=(X=1390.000 Y=200.000 Z=590.000), Max=(X=1590.000 Y=400.000 Z=591.000) RuntimeGrid:None EditorOnly:0 RuntimeOnly:0 HLODRelevant:1
 |   |   |- Guid:A6E61823473D051436361BB1909EFCBA BaseClass: NativeClass:/Script/Engine.StaticMeshActor Name:StaticMeshActor_UAID_D4548B0A710B287801_1864204939 Label:SM_QuarterCylinder SpatiallyLoaded:1 Bounds:IsValid=true, Min=(X=880.000 Y=2000.000 Z=490.000), Max=(X=980.000 Y=2400.000 Z=590.000) RuntimeGrid:None EditorOnly:0 RuntimeOnly:0 HLODRelevant:1
 |   |   |- Guid:AD8D621045E8BD19978AA3B098808D36 BaseClass: NativeClass:/Script/Engine.StaticMeshActor Name:StaticMeshActor_59 Label:SM_ChamferCube4 SpatiallyLoaded:1 Bounds:IsValid=true, Min=(X=793.409 Y=1324.238 Z=0.063), Max=(X=934.292 Y=1465.121 Z=100.063) RuntimeGrid:None EditorOnly:0 RuntimeOnly:0 HLODRelevant:0 FolderPath:Interactive cubes FolderGuid:4A4BEB094627B72155B91EA26F7A65BE
 |   |   |- Guid:AECEEEE741E6DE68F6843FA49564A956 BaseClass: NativeClass:/Script/Engine.DirectionalLight Name:DirectionalLight_1 Label:DirectionalLight SpatiallyLoaded:0 Bounds:IsValid=true, Min=(X=-4398046511104.000 Y=-4398046511104.000 Z=-4398046511104.000), Max=(X=4398046511104.000 Y=4398046511104.000 Z=4398046511104.000) RuntimeGrid:None EditorOnly:0 RuntimeOnly:0 HLODRelevant:0 FolderPath:Lighting FolderGuid:4C9334684BA61B42C769F799D2576455
 |   |   |- Guid:B25C2C3F40853B6D0937C3800BBC9E88 BaseClass: NativeClass:/Script/Engine.StaticMeshActor Name:StaticMeshActor_UAID_D4548B0A710B287801_1383215927 Label:SM_Ramp2 SpatiallyLoaded:1 Bounds:IsValid=true, Min=(X=1990.000 Y=100.000 Z=390.000), Max=(X=2390.000 Y=500.000 Z=590.000) RuntimeGrid:None EditorOnly:0 RuntimeOnly:0 HLODRelevant:1 FolderPath:Obsticles FolderGuid:05583462482018D74864B98792E160FE
 |   |   |- Guid:B27BA553417EB625AD670796B09592E6 BaseClass: NativeClass:/Script/Engine.StaticMeshActor Name:StaticMeshActor_UAID_D4548B0A710B277801_1764409745 Label:SM_Cube4 SpatiallyLoaded:1 Bounds:IsValid=true, Min=(X=10.000 Y=10.000 Z=0.000), Max=(X=3010.000 Y=110.000 Z=1000.000) RuntimeGrid:None EditorOnly:0 RuntimeOnly:0 HLODRelevant:1 FolderPath:Borders FolderGuid:9FE5E8B349AF71F05F2688921F3F2AC5
 |   |   |- Guid:B57C25EF455659C63C6BEF9655F58211 BaseClass: NativeClass:/Script/Engine.StaticMeshActor Name:StaticMeshActor_UAID_D4548B0A710B287801_2094704958 Label:SM_Cube17 SpatiallyLoaded:1 Bounds:IsValid=true, Min=(X=2000.000 Y=3600.000 Z=-10.000), Max=(X=2100.000 Y=4000.000 Z=490.000) RuntimeGrid:None EditorOnly:0 RuntimeOnly:0 HLODRelevant:1 FolderPath:Obsticles FolderGuid:05583462482018D74864B98792E160FE
 |   |   |- Guid:B58BB73A41FA5709D4B77EA123BE1AF6 BaseClass: NativeClass:/Script/Engine.StaticMeshActor Name:StaticMeshActor_UAID_D4548B0A710B297801_1232582149 Label:SM_ChamferCube9 SpatiallyLoaded:1 Bounds:IsValid=true, Min=(X=2123.903 Y=1045.852 Z=0.063), Max=(X=2260.505 Y=1182.455 Z=100.063) RuntimeGrid:None EditorOnly:0 RuntimeOnly:0 HLODRelevant:0 FolderPath:Interactive FolderGuid:C7BA79F943EAB954570385A5BF387224
 |   |   |- Guid:B940A0544FB1F01696B5649CBFCC7854 BaseClass: NativeClass:/Script/Engine.StaticMeshActor Name:StaticMeshActor_UAID_D4548B0A710B287801_2094691948 Label:SM_Cube15 SpatiallyLoaded:1 Bounds:IsValid=true, Min=(X=990.000 Y=5500.000 Z=390.000), Max=(X=1990.000 Y=5900.000 Z=590.000) RuntimeGrid:None EditorOnly:0 RuntimeOnly:0 HLODRelevant:1 FolderPath:Obsticles FolderGuid:05583462482018D74864B98792E160FE
 |   |   |- Guid:BA2F56A24A4D60663F48CA817D33B295 BaseClass: NativeClass:/Script/Engine.StaticMeshActor Name:StaticMeshActor_UAID_D4548B0A710B287801_1202889925 Label:SM_Cube9 SpatiallyLoaded:1 Bounds:IsValid=true, Min=(X=990.000 Y=100.000 Z=390.000), Max=(X=1990.000 Y=500.000 Z=590.000) RuntimeGrid:None EditorOnly:0 RuntimeOnly:0 HLODRelevant:1 FolderPath:Obsticles FolderGuid:05583462482018D74864B98792E160FE
 |   |   |- Guid:BAC22B47471E9662F77D869D8EE8EB64 BaseClass:/Game/Wizard/Blueprints/BP_Wizard.BP_Wizard_C NativeClass:/Script/Engine.Character Name:BP_Wizard_C_UAID_D4548B0A710B127801_1095777049 Label:BP_Wizard3_P0 SpatiallyLoaded:1 Bounds:IsValid=true, Min=(X=990.000 Y=5210.000 Z=460.000), Max=(X=1990.000 Y=6210.000 Z=960.000) RuntimeGrid:None EditorOnly:0 RuntimeOnly:0 HLODRelevant:0
 |   |   |- Guid:BC3FCD9C4E45B04846FED8837F0C0542 BaseClass:/Game/Wizard/Blueprints/BP_Wizard.BP_Wizard_C NativeClass:/Script/Engine.Character Name:BP_Wizard_C_UAID_D4548B0A710B127801_1117580050 Label:BP_Wizard2_P0 SpatiallyLoaded:1 Bounds:IsValid=true, Min=(X=2190.000 Y=5210.000 Z=260.000), Max=(X=3190.000 Y=6210.000 Z=760.000) RuntimeGrid:None EditorOnly:0 RuntimeOnly:0 HLODRelevant:0
 |   |   |- Guid:BDF6BEAA4778522030C714BB2F672659 BaseClass: NativeClass:/Script/Engine.StaticMeshActor Name:StaticMeshActor_UAID_D4548B0A710B297801_1131365143 Label:SM_Ramp14 SpatiallyLoaded:1 Bounds:IsValid=true, Min=(X=1990.000 Y=2810.000 Z=-10.000), Max=(X=2490.000 Y=3210.000 Z=390.000) RuntimeGrid:None EditorOnly:0 RuntimeOnly:0 HLODRelevant:1 FolderPath:Obsticles FolderGuid:05583462482018D74864B98792E160FE
 |   |   |- Guid:BF80722247EE9B7D560935A6D797B94E BaseClass: NativeClass:/Script/Engine.StaticMeshActor Name:StaticMeshActor_UAID_D4548B0A710B287801_2094700955 Label:SM_Cylinder2 SpatiallyLoaded:1 Bounds:IsValid=true, Min=(X=1290.000 Y=4210.000 Z=0.000), Max=(X=1690.000 Y=4610.000 Z=400.000) RuntimeGrid:None EditorOnly:0 RuntimeOnly:0 HLODRelevant:1
 |   |   |- Guid:C9A08DB2440C6D0FDA0D368718238C9F BaseClass: NativeClass:/Script/Engine.StaticMeshActor Name:StaticMeshActor_UAID_D4548B0A710B277801_1882142746 Label:SM_Cube SpatiallyLoaded:1 Bounds:IsValid=true, Min=(X=-10.000 Y=100.000 Z=-10.000), Max=(X=490.000 Y=5900.000 Z=390.000) RuntimeGrid:None EditorOnly:0 RuntimeOnly:0 HLODRelevant:1 FolderPath:Obsticles FolderGuid:05583462482018D74864B98792E160FE
 |   |   |- Guid:CCDD89584E0A9025F52AEDA51D60CA54 BaseClass: NativeClass:/Script/NavigationSystem.NavMeshBoundsVolume Name:NavMeshBoundsVolume_1 Label:NavMeshBoundsVolume SpatiallyLoaded:0 Bounds:IsValid=true, Min=(X=-3289.703 Y=-2462.416 Z=-308.558), Max=(X=6310.297 Y=8637.584 Z=1191.442) RuntimeGrid:None EditorOnly:0 RuntimeOnly:0 HLODRelevant:0
 |   |   |- Guid:CF238EEB4FB491D5F68BCB97A8875C44 BaseClass:/Game/Wizard/Blueprints/BP_Wizard.BP_Wizard_C NativeClass:/Script/Engine.Character Name:BP_Wizard_C_UAID_D4548B0A710BE67701_1228894304 Label:BP_Wizard3_P1 SpatiallyLoaded:1 Bounds:IsValid=true, Min=(X=-220.000 Y=-200.000 Z=260.000), Max=(X=780.000 Y=800.000 Z=760.000) RuntimeGrid:None EditorOnly:0 RuntimeOnly:0 HLODRelevant:0
 |   |   |- Guid:D24D61B944EF71BE7BC469B7EB239299 BaseClass: NativeClass:/Script/Engine.ExponentialHeightFog Name:ExponentialHeightFog_1 Label:ExponentialHeightFog SpatiallyLoaded:0 Bounds:IsValid=true, Min=(X=-5600.000 Y=-50.000 Z=-6850.000), Max=(X=-5600.000 Y=-50.000 Z=-6850.000) RuntimeGrid:None EditorOnly:0 RuntimeOnly:0 HLODRelevant:0 FolderPath:Lighting FolderGuid:4C9334684BA61B42C769F799D2576455
 |   |   |- Guid:E28534564E6AC5B81D74AB9A03D17003 BaseClass: NativeClass:/Script/Engine.StaticMeshActor Name:StaticMeshActor_UAID_D4548B0A710B277801_2067380748 Label:SM_Cube8 SpatiallyLoaded:1 Bounds:IsValid=true, Min=(X=490.000 Y=100.000 Z=-10.000), Max=(X=2490.000 Y=500.000 Z=390.000) RuntimeGrid:None EditorOnly:0 RuntimeOnly:0 HLODRelevant:1 FolderPath:Obsticles FolderGuid:05583462482018D74864B98792E160FE
 |   |   |- Guid:E9A7CC6F4BA1231ED60208AB9C648293 BaseClass: NativeClass:/Script/Engine.StaticMeshActor Name:StaticMeshActor_44 Label:SM_ChamferCube3 SpatiallyLoaded:1 Bounds:IsValid=true, Min=(X=671.512 Y=1364.945 Z=0.063), Max=(X=808.115 Y=1501.548 Z=100.063) RuntimeGrid:None EditorOnly:0 RuntimeOnly:0 HLODRelevant:0 FolderPath:Interactive cubes FolderGuid:4A4BEB094627B72155B91EA26F7A65BE
 |   |   |- Guid:E9F51259425B785A35C436A5559AD7B4 BaseClass: NativeClass:/Script/Engine.StaticMeshActor Name:StaticMeshActor_19 Label:SM_Cube3 SpatiallyLoaded:1 Bounds:IsValid=true, Min=(X=0.000 Y=5900.000 Z=0.000), Max=(X=3000.000 Y=6000.000 Z=1000.000) RuntimeGrid:None EditorOnly:0 RuntimeOnly:0 HLODRelevant:1 FolderPath:Borders FolderGuid:9FE5E8B349AF71F05F2688921F3F2AC5
 |   |   |- Guid:EFF08F8748A1D8A7D15781B9E7C2EEDA BaseClass: NativeClass:/Script/Engine.StaticMeshActor Name:StaticMeshActor_UAID_D4548B0A710B287801_2094689947 Label:SM_Cube14 SpatiallyLoaded:1 Bounds:IsValid=true, Min=(X=490.000 Y=5500.000 Z=-10.000), Max=(X=2490.000 Y=5900.000 Z=390.000) RuntimeGrid:None EditorOnly:0 RuntimeOnly:0 HLODRelevant:1 FolderPath:Obsticles FolderGuid:05583462482018D74864B98792E160FE
 |   |   |- Guid:F07559B14CE9ADE1215992AA417A945E BaseClass: NativeClass:/Script/Engine.StaticMeshActor Name:StaticMeshActor_18 Label:SM_Cube2 SpatiallyLoaded:1 Bounds:IsValid=true, Min=(X=0.000 Y=0.000 Z=0.000), Max=(X=3000.000 Y=100.000 Z=1000.000) RuntimeGrid:None EditorOnly:0 RuntimeOnly:0 HLODRelevant:1 FolderPath:Borders FolderGuid:9FE5E8B349AF71F05F2688921F3F2AC5
 |   |   |- Guid:F2CC750649DFCC4E14E969B0809394A7 BaseClass: NativeClass:/Script/Engine.StaticMeshActor Name:StaticMeshActor_UAID_D4548B0A710B287801_2094696952 Label:SM_Ramp10 SpatiallyLoaded:1 Bounds:IsValid=true, Min=(X=490.000 Y=5100.000 Z=-10.000), Max=(X=990.000 Y=5500.000 Z=390.000) RuntimeGrid:None EditorOnly:0 RuntimeOnly:0 HLODRelevant:1 FolderPath:Obsticles FolderGuid:05583462482018D74864B98792E160FE
 |   |   |- Guid:F994B9114ED7F9848D7327B89D129146 BaseClass: NativeClass:/Script/Engine.StaticMeshActor Name:StaticMeshActor_UAID_D4548B0A710B287801_1665851935 Label:SM_Cube10 SpatiallyLoaded:1 Bounds:IsValid=true, Min=(X=480.000 Y=2000.000 Z=-10.000), Max=(X=880.000 Y=2400.000 Z=390.000) RuntimeGrid:None EditorOnly:0 RuntimeOnly:0 HLODRelevant:1 FolderPath:Obsticles FolderGuid:05583462482018D74864B98792E160FE
 |   |- [+] Clusters:
 |   |   |- [+] [  0]
 |   |   |   |- Guid:D24D61B944EF71BE7BC469B7EB239299 BaseClass: NativeClass:/Script/Engine.ExponentialHeightFog Name:ExponentialHeightFog_1 Label:ExponentialHeightFog SpatiallyLoaded:0 Bounds:IsValid=true, Min=(X=-5600.000 Y=-50.000 Z=-6850.000), Max=(X=-5600.000 Y=-50.000 Z=-6850.000) RuntimeGrid:None EditorOnly:0 RuntimeOnly:0 HLODRelevant:0 FolderPath:Lighting FolderGuid:4C9334684BA61B42C769F799D2576455
 |   |   |- [+] [  1]
 |   |   |   |- Guid:63ACDA4A40317D5B1DE8D988C5A73A8A BaseClass:/Game/Wizard/Blueprints/BP_Wizard.BP_Wizard_C NativeClass:/Script/Engine.Character Name:BP_Wizard_C_UAID_D4548B0A710BE47701_1560954951 Label:BP_Wizard1_P0 SpatiallyLoaded:1 Bounds:IsValid=true, Min=(X=-130.000 Y=5210.000 Z=260.000), Max=(X=870.000 Y=6210.000 Z=760.000) RuntimeGrid:None EditorOnly:0 RuntimeOnly:0 HLODRelevant:0
 |   |   |- [+] [  2]
 |   |   |   |- Guid:66BCBF874D2A22ADC6523B95EE812CA3 BaseClass: NativeClass:/Script/Engine.StaticMeshActor Name:StaticMeshActor_UAID_A4AE111137DC5CFB00_1660657071 Label:SM_SkySphere SpatiallyLoaded:0 Bounds:IsValid=true, Min=(X=-1638400.000 Y=-1638400.000 Z=-1638400.000), Max=(X=1638400.000 Y=1638400.000 Z=1638400.000) RuntimeGrid:None EditorOnly:0 RuntimeOnly:0 HLODRelevant:1 FolderPath:Lighting FolderGuid:4C9334684BA61B42C769F799D2576455
 |   |   |- [+] [  3]
 |   |   |   |- Guid:78ED5DE144831EA753EBD592DF6605BE BaseClass: NativeClass:/Script/Engine.StaticMeshActor Name:StaticMeshActor_UAID_D4548B0A710B287801_2006129944 Label:SM_Ramp6 SpatiallyLoaded:1 Bounds:IsValid=true, Min=(X=2090.000 Y=2000.000 Z=390.000), Max=(X=2490.000 Y=2400.000 Z=590.000) RuntimeGrid:None EditorOnly:0 RuntimeOnly:0 HLODRelevant:1 FolderPath:Obsticles FolderGuid:05583462482018D74864B98792E160FE
 |   |   |- [+] [  4]
 |   |   |   |- Guid:E9F51259425B785A35C436A5559AD7B4 BaseClass: NativeClass:/Script/Engine.StaticMeshActor Name:StaticMeshActor_19 Label:SM_Cube3 SpatiallyLoaded:1 Bounds:IsValid=true, Min=(X=0.000 Y=5900.000 Z=0.000), Max=(X=3000.000 Y=6000.000 Z=1000.000) RuntimeGrid:None EditorOnly:0 RuntimeOnly:0 HLODRelevant:1 FolderPath:Borders FolderGuid:9FE5E8B349AF71F05F2688921F3F2AC5
 |   |   |- [+] [  5]
 |   |   |   |- Guid:AD8D621045E8BD19978AA3B098808D36 BaseClass: NativeClass:/Script/Engine.StaticMeshActor Name:StaticMeshActor_59 Label:SM_ChamferCube4 SpatiallyLoaded:1 Bounds:IsValid=true, Min=(X=793.409 Y=1324.238 Z=0.063), Max=(X=934.292 Y=1465.121 Z=100.063) RuntimeGrid:None EditorOnly:0 RuntimeOnly:0 HLODRelevant:0 FolderPath:Interactive cubes FolderGuid:4A4BEB094627B72155B91EA26F7A65BE
 |   |   |- [+] [  6]
 |   |   |   |- Guid:14A0A60849D08AAEAD729EB773A2E4AB BaseClass: NativeClass:/Script/Engine.StaticMeshActor Name:StaticMeshActor_UAID_D4548B0A710B297801_1211102146 Label:SM_ChamferCube7 SpatiallyLoaded:1 Bounds:IsValid=true, Min=(X=1071.867 Y=3362.081 Z=0.063), Max=(X=1208.470 Y=3498.683 Z=100.063) RuntimeGrid:None EditorOnly:0 RuntimeOnly:0 HLODRelevant:0 FolderPath:Interactive FolderGuid:C7BA79F943EAB954570385A5BF387224
 |   |   |- [+] [  7]
 |   |   |   |- Guid:AECEEEE741E6DE68F6843FA49564A956 BaseClass: NativeClass:/Script/Engine.DirectionalLight Name:DirectionalLight_1 Label:DirectionalLight SpatiallyLoaded:0 Bounds:IsValid=true, Min=(X=-4398046511104.000 Y=-4398046511104.000 Z=-4398046511104.000), Max=(X=4398046511104.000 Y=4398046511104.000 Z=4398046511104.000) RuntimeGrid:None EditorOnly:0 RuntimeOnly:0 HLODRelevant:0 FolderPath:Lighting FolderGuid:4C9334684BA61B42C769F799D2576455
 |   |   |- [+] [  8]
 |   |   |   |- Guid:194523FD4D0A8D2E141E10940B43B3CA BaseClass: NativeClass:/Script/Engine.StaticMeshActor Name:StaticMeshActor_UAID_D4548B0A710B287801_2094701956 Label:SM_Ramp11 SpatiallyLoaded:1 Bounds:IsValid=true, Min=(X=2100.000 Y=3600.000 Z=390.000), Max=(X=2500.000 Y=4000.000 Z=590.000) RuntimeGrid:None EditorOnly:0 RuntimeOnly:0 HLODRelevant:1 FolderPath:Obsticles FolderGuid:05583462482018D74864B98792E160FE
 |   |   |- [+] [  9]
 |   |   |   |- Guid:053F3B45485B4D4E6BF6C98EF0123BCD BaseClass: NativeClass:/Script/Engine.StaticMeshActor Name:StaticMeshActor_UAID_D4548B0A710B287801_2006132946 Label:SM_Cube13 SpatiallyLoaded:1 Bounds:IsValid=true, Min=(X=1990.000 Y=2000.000 Z=-10.000), Max=(X=2090.000 Y=2400.000 Z=490.000) RuntimeGrid:None EditorOnly:0 RuntimeOnly:0 HLODRelevant:1 FolderPath:Obsticles FolderGuid:05583462482018D74864B98792E160FE
 |   |   |- [+] [ 10]
 |   |   |   |- Guid:106563D5414FAD0844FBDCBEAC7AF29D BaseClass: NativeClass:/Script/Engine.StaticMeshActor Name:StaticMeshActor_42 Label:SM_ChamferCube SpatiallyLoaded:1 Bounds:IsValid=true, Min=(X=931.762 Y=1393.712 Z=0.063), Max=(X=1072.646 Y=1534.595 Z=100.063) RuntimeGrid:None EditorOnly:0 RuntimeOnly:0 HLODRelevant:0 FolderPath:Interactive cubes FolderGuid:4A4BEB094627B72155B91EA26F7A65BE
 |   |   |- [+] [ 11]
 |   |   |   |- Guid:F994B9114ED7F9848D7327B89D129146 BaseClass: NativeClass:/Script/Engine.StaticMeshActor Name:StaticMeshActor_UAID_D4548B0A710B287801_1665851935 Label:SM_Cube10 SpatiallyLoaded:1 Bounds:IsValid=true, Min=(X=480.000 Y=2000.000 Z=-10.000), Max=(X=880.000 Y=2400.000 Z=390.000) RuntimeGrid:None EditorOnly:0 RuntimeOnly:0 HLODRelevant:1 FolderPath:Obsticles FolderGuid:05583462482018D74864B98792E160FE
 |   |   |- [+] [ 12]
 |   |   |   |- Guid:2CE787C24C14EAFF9F6C65B191124D69 BaseClass: NativeClass:/Script/Engine.StaticMeshActor Name:StaticMeshActor_UAID_D4548B0A710B277801_2025499747 Label:SM_Cube7 SpatiallyLoaded:1 Bounds:IsValid=true, Min=(X=2490.000 Y=110.000 Z=-10.000), Max=(X=2890.000 Y=5910.000 Z=390.000) RuntimeGrid:None EditorOnly:0 RuntimeOnly:0 HLODRelevant:1 FolderPath:Obsticles FolderGuid:05583462482018D74864B98792E160FE
 |   |   |- [+] [ 13]
 |   |   |   |- Guid:B940A0544FB1F01696B5649CBFCC7854 BaseClass: NativeClass:/Script/Engine.StaticMeshActor Name:StaticMeshActor_UAID_D4548B0A710B287801_2094691948 Label:SM_Cube15 SpatiallyLoaded:1 Bounds:IsValid=true, Min=(X=990.000 Y=5500.000 Z=390.000), Max=(X=1990.000 Y=5900.000 Z=590.000) RuntimeGrid:None EditorOnly:0 RuntimeOnly:0 HLODRelevant:1 FolderPath:Obsticles FolderGuid:05583462482018D74864B98792E160FE
 |   |   |- [+] [ 14]
 |   |   |   |- Guid:160878CC460F3FE8D6D374AE09D51E89 BaseClass: NativeClass:/Script/Engine.StaticMeshActor Name:StaticMeshActor_UAID_D4548B0A710B297801_2101307154 Label:SM_Cylinder5 SpatiallyLoaded:1 Bounds:IsValid=true, Min=(X=2590.000 Y=200.000 Z=390.000), Max=(X=2790.000 Y=400.000 Z=391.000) RuntimeGrid:None EditorOnly:0 RuntimeOnly:0 HLODRelevant:1
 |   |   |- [+] [ 15]
 |   |   |   |- Guid:22268DBE4A62C53DE28625B626A5B1EE BaseClass: NativeClass:/Script/Engine.StaticMeshActor Name:StaticMeshActor_UAID_D4548B0A710B287801_2094711963 Label:SM_Cube19 SpatiallyLoaded:1 Bounds:IsValid=true, Min=(X=890.000 Y=3600.000 Z=-10.000), Max=(X=990.000 Y=4000.000 Z=490.000) RuntimeGrid:None EditorOnly:0 RuntimeOnly:0 HLODRelevant:1 FolderPath:Obsticles FolderGuid:05583462482018D74864B98792E160FE
 |   |   |- [+] [ 16]
 |   |   |   |- Guid:97CC0EBC40AF4143F0AFA6859B563AD0 BaseClass: NativeClass:/Script/Engine.StaticMeshActor Name:StaticMeshActor_UAID_D4548B0A710B297801_1333792151 Label:SM_Cylinder4 SpatiallyLoaded:1 Bounds:IsValid=true, Min=(X=1390.000 Y=200.000 Z=590.000), Max=(X=1590.000 Y=400.000 Z=591.000) RuntimeGrid:None EditorOnly:0 RuntimeOnly:0 HLODRelevant:1
 |   |   |- [+] [ 17]
 |   |   |   |- Guid:1FEC8FAC495CEF0CE32492ADCBB96BAE BaseClass: NativeClass:/Script/AIModule.NavLinkProxy Name:NavLinkProxy_3 Label:NavLinkProxy3 SpatiallyLoaded:1 Bounds:IsValid=true, Min=(X=2240.000 Y=1030.000 Z=90.000), Max=(X=2240.000 Y=1030.000 Z=90.000) RuntimeGrid:None EditorOnly:0 RuntimeOnly:0 HLODRelevant:0 FolderPath:Navigation FolderGuid:AE45D61F453CC144CF8289862C276E89
 |   |   |- [+] [ 18]
 |   |   |   |- Guid:485B44AB40243089C3ABE59464E5C3B9 BaseClass: NativeClass:/Script/Engine.StaticMeshActor Name:StaticMeshActor_UAID_D4548B0A710B287801_2094709962 Label:SM_QuarterCylinder4 SpatiallyLoaded:1 Bounds:IsValid=true, Min=(X=890.000 Y=3600.000 Z=490.000), Max=(X=990.000 Y=4000.000 Z=590.000) RuntimeGrid:None EditorOnly:0 RuntimeOnly:0 HLODRelevant:1
 |   |   |- [+] [ 19]
 |   |   |   |- Guid:03D4D9B344F9B95C8C46228D6FE2B7B9 BaseClass: NativeClass:/Script/Engine.StaticMeshActor Name:StaticMeshActor_UAID_D4548B0A710B297801_1131362142 Label:SM_Ramp13 SpatiallyLoaded:1 Bounds:IsValid=true, Min=(X=490.000 Y=2810.000 Z=-10.000), Max=(X=990.000 Y=3210.000 Z=390.000) RuntimeGrid:None EditorOnly:0 RuntimeOnly:0 HLODRelevant:1 FolderPath:Obsticles FolderGuid:05583462482018D74864B98792E160FE
 |   |   |- [+] [ 20]
 |   |   |   |- Guid:F2CC750649DFCC4E14E969B0809394A7 BaseClass: NativeClass:/Script/Engine.StaticMeshActor Name:StaticMeshActor_UAID_D4548B0A710B287801_2094696952 Label:SM_Ramp10 SpatiallyLoaded:1 Bounds:IsValid=true, Min=(X=490.000 Y=5100.000 Z=-10.000), Max=(X=990.000 Y=5500.000 Z=390.000) RuntimeGrid:None EditorOnly:0 RuntimeOnly:0 HLODRelevant:1 FolderPath:Obsticles FolderGuid:05583462482018D74864B98792E160FE
 |   |   |- [+] [ 21]
 |   |   |   |- Guid:B27BA553417EB625AD670796B09592E6 BaseClass: NativeClass:/Script/Engine.StaticMeshActor Name:StaticMeshActor_UAID_D4548B0A710B277801_1764409745 Label:SM_Cube4 SpatiallyLoaded:1 Bounds:IsValid=true, Min=(X=10.000 Y=10.000 Z=0.000), Max=(X=3010.000 Y=110.000 Z=1000.000) RuntimeGrid:None EditorOnly:0 RuntimeOnly:0 HLODRelevant:1 FolderPath:Borders FolderGuid:9FE5E8B349AF71F05F2688921F3F2AC5
 |   |   |- [+] [ 22]
 |   |   |   |- Guid:4747D76B42BEFBC734BFCEB57C7C4A27 BaseClass: NativeClass:/Script/Engine.StaticMeshActor Name:StaticMeshActor_UAID_D4548B0A710B287801_2142317965 Label:SM_Cylinder3 SpatiallyLoaded:1 Bounds:IsValid=true, Min=(X=1190.000 Y=2700.000 Z=0.000), Max=(X=1790.000 Y=3300.000 Z=600.000) RuntimeGrid:None EditorOnly:0 RuntimeOnly:0 HLODRelevant:1
 |   |   |- [+] [ 23]
 |   |   |   |- Guid:B57C25EF455659C63C6BEF9655F58211 BaseClass: NativeClass:/Script/Engine.StaticMeshActor Name:StaticMeshActor_UAID_D4548B0A710B287801_2094704958 Label:SM_Cube17 SpatiallyLoaded:1 Bounds:IsValid=true, Min=(X=2000.000 Y=3600.000 Z=-10.000), Max=(X=2100.000 Y=4000.000 Z=490.000) RuntimeGrid:None EditorOnly:0 RuntimeOnly:0 HLODRelevant:1 FolderPath:Obsticles FolderGuid:05583462482018D74864B98792E160FE
 |   |   |- [+] [ 24]
 |   |   |   |- Guid:118DBD31455F1F3FE52941BF3869F01C BaseClass: NativeClass:/Script/Engine.StaticMeshActor Name:StaticMeshActor_UAID_D4548B0A710B287801_2094706959 Label:SM_Cube18 SpatiallyLoaded:1 Bounds:IsValid=true, Min=(X=490.000 Y=3600.000 Z=-10.000), Max=(X=890.000 Y=4000.000 Z=390.000) RuntimeGrid:None EditorOnly:0 RuntimeOnly:0 HLODRelevant:1 FolderPath:Obsticles FolderGuid:05583462482018D74864B98792E160FE
 |   |   |- [+] [ 25]
 |   |   |   |- Guid:306929B142C99B3AD97B3C9F251C2129 BaseClass: NativeClass:/Script/Engine.StaticMeshActor Name:StaticMeshActor_22 Label:SM_Cube5 SpatiallyLoaded:1 Bounds:IsValid=true, Min=(X=-10.000 Y=100.000 Z=0.000), Max=(X=90.000 Y=6000.000 Z=475.000) RuntimeGrid:None EditorOnly:0 RuntimeOnly:0 HLODRelevant:0 FolderPath:Borders FolderGuid:9FE5E8B349AF71F05F2688921F3F2AC5
 |   |   |- [+] [ 26]
 |   |   |   |- Guid:07470EE742E41B8335E34D99E398C23D BaseClass: NativeClass:/Script/Engine.StaticMeshActor Name:StaticMeshActor_UAID_D4548B0A710B297801_2131035158 Label:SM_Cylinder9 SpatiallyLoaded:1 Bounds:IsValid=true, Min=(X=270.000 Y=5610.000 Z=390.000), Max=(X=470.000 Y=5810.000 Z=391.000) RuntimeGrid:None EditorOnly:0 RuntimeOnly:0 HLODRelevant:1
 |   |   |- [+] [ 27]
 |   |   |   |- Guid:4A317BC1408D8A90DAE6A2B5AEEB6153 BaseClass:/Game/JakeStuff/RandomTrap.RandomTrap_C NativeClass:/Script/Engine.Actor Name:RandomTrap_C_UAID_D85ED30B591C097F01_1697324855 Label:RandomTrap SpatiallyLoaded:1 Bounds:IsValid=true, Min=(X=230.000 Y=3840.000 Z=390.000), Max=(X=230.000 Y=3840.000 Z=390.000) RuntimeGrid:None EditorOnly:0 RuntimeOnly:0 HLODRelevant:0
 |   |   |- [+] [ 28]
 |   |   |   |- Guid:1EA56A3146AC7DF12D0E3B9C1C2ABE6A BaseClass: NativeClass:/Script/Engine.StaticMeshActor Name:StaticMeshActor_UAID_D4548B0A710B287801_1616177932 Label:SM_Ramp4 SpatiallyLoaded:1 Bounds:IsValid=true, Min=(X=1990.000 Y=500.000 Z=-10.000), Max=(X=2490.000 Y=900.000 Z=390.000) RuntimeGrid:None EditorOnly:0 RuntimeOnly:0 HLODRelevant:1 FolderPath:Obsticles FolderGuid:05583462482018D74864B98792E160FE
 |   |   |- [+] [ 29]
 |   |   |   |- Guid:0F4324B34E091887A24AD9995AE727D1 BaseClass: NativeClass:/Script/Engine.StaticMeshActor Name:StaticMeshActor_23 Label:SM_Cube6 SpatiallyLoaded:1 Bounds:IsValid=true, Min=(X=2900.000 Y=100.000 Z=0.000), Max=(X=3000.000 Y=6000.000 Z=1000.000) RuntimeGrid:None EditorOnly:0 RuntimeOnly:0 HLODRelevant:1 FolderPath:Borders FolderGuid:9FE5E8B349AF71F05F2688921F3F2AC5
 |   |   |- [+] [ 30]
 |   |   |   |- Guid:372A06DB44D1B1E5567AA98362912412 BaseClass: NativeClass:/Script/Engine.StaticMeshActor Name:StaticMeshActor_UAID_D4548B0A710B287801_2094703957 Label:SM_QuarterCylinder3 SpatiallyLoaded:1 Bounds:IsValid=true, Min=(X=2000.000 Y=3600.000 Z=490.000), Max=(X=2100.000 Y=4000.000 Z=590.000) RuntimeGrid:None EditorOnly:0 RuntimeOnly:0 HLODRelevant:1
 |   |   |- [+] [ 31]
 |   |   |   |- Guid:030B03B24C5DF8C59D38099355584D22 BaseClass:/Game/JakeStuff/RandomTrap.RandomTrap_C NativeClass:/Script/Engine.Actor Name:RandomTrap_C_UAID_D85ED30B591C097F01_1700664856 Label:RandomTrap2 SpatiallyLoaded:1 Bounds:IsValid=true, Min=(X=2660.000 Y=3840.000 Z=390.000), Max=(X=2660.000 Y=3840.000 Z=390.000) RuntimeGrid:None EditorOnly:0 RuntimeOnly:0 HLODRelevant:0
 |   |   |- [+] [ 32]
 |   |   |   |- Guid:1A5FCF4B41BBF500586F519E20444CFE BaseClass: NativeClass:/Script/Engine.StaticMeshActor Name:StaticMeshActor_UAID_D4548B0A710B287801_1502208930 Label:SM_Ramp3 SpatiallyLoaded:1 Bounds:IsValid=true, Min=(X=490.000 Y=500.000 Z=-10.000), Max=(X=990.000 Y=900.000 Z=390.000) RuntimeGrid:None EditorOnly:0 RuntimeOnly:0 HLODRelevant:1 FolderPath:Obsticles FolderGuid:05583462482018D74864B98792E160FE
 |   |   |- [+] [ 33]
 |   |   |   |- Guid:A6E61823473D051436361BB1909EFCBA BaseClass: NativeClass:/Script/Engine.StaticMeshActor Name:StaticMeshActor_UAID_D4548B0A710B287801_1864204939 Label:SM_QuarterCylinder SpatiallyLoaded:1 Bounds:IsValid=true, Min=(X=880.000 Y=2000.000 Z=490.000), Max=(X=980.000 Y=2400.000 Z=590.000) RuntimeGrid:None EditorOnly:0 RuntimeOnly:0 HLODRelevant:1
 |   |   |- [+] [ 34]
 |   |   |   |- Guid:B58BB73A41FA5709D4B77EA123BE1AF6 BaseClass: NativeClass:/Script/Engine.StaticMeshActor Name:StaticMeshActor_UAID_D4548B0A710B297801_1232582149 Label:SM_ChamferCube9 SpatiallyLoaded:1 Bounds:IsValid=true, Min=(X=2123.903 Y=1045.852 Z=0.063), Max=(X=2260.505 Y=1182.455 Z=100.063) RuntimeGrid:None EditorOnly:0 RuntimeOnly:0 HLODRelevant:0 FolderPath:Interactive FolderGuid:C7BA79F943EAB954570385A5BF387224
 |   |   |- [+] [ 35]
 |   |   |   |- Guid:10E39151439FC86A7ABEDEB160020E32 BaseClass:/Game/JakeStuff/RandomTrap.RandomTrap_C NativeClass:/Script/Engine.Actor Name:RandomTrap_C_UAID_D85ED30B591C097F01_1710438858 Label:RandomTrap4 SpatiallyLoaded:1 Bounds:IsValid=true, Min=(X=2630.000 Y=2280.000 Z=390.000), Max=(X=2630.000 Y=2280.000 Z=390.000) RuntimeGrid:None EditorOnly:0 RuntimeOnly:0 HLODRelevant:0
 |   |   |- [+] [ 36]
 |   |   |   |- Guid:E28534564E6AC5B81D74AB9A03D17003 BaseClass: NativeClass:/Script/Engine.StaticMeshActor Name:StaticMeshActor_UAID_D4548B0A710B277801_2067380748 Label:SM_Cube8 SpatiallyLoaded:1 Bounds:IsValid=true, Min=(X=490.000 Y=100.000 Z=-10.000), Max=(X=2490.000 Y=500.000 Z=390.000) RuntimeGrid:None EditorOnly:0 RuntimeOnly:0 HLODRelevant:1 FolderPath:Obsticles FolderGuid:05583462482018D74864B98792E160FE
 |   |   |- [+] [ 37]
 |   |   |   |- Guid:BC3FCD9C4E45B04846FED8837F0C0542 BaseClass:/Game/Wizard/Blueprints/BP_Wizard.BP_Wizard_C NativeClass:/Script/Engine.Character Name:BP_Wizard_C_UAID_D4548B0A710B127801_1117580050 Label:BP_Wizard2_P0 SpatiallyLoaded:1 Bounds:IsValid=true, Min=(X=2190.000 Y=5210.000 Z=260.000), Max=(X=3190.000 Y=6210.000 Z=760.000) RuntimeGrid:None EditorOnly:0 RuntimeOnly:0 HLODRelevant:0
 |   |   |- [+] [ 38]
 |   |   |   |- Guid:1D4DDBCB40CB7E54BE04A4833F4CEBD1 BaseClass: NativeClass:/Script/Engine.StaticMeshActor Name:StaticMeshActor_UAID_D4548B0A710B287801_1333696926 Label:SM_Ramp SpatiallyLoaded:1 Bounds:IsValid=true, Min=(X=590.000 Y=100.000 Z=390.000), Max=(X=990.000 Y=500.000 Z=590.000) RuntimeGrid:None EditorOnly:0 RuntimeOnly:0 HLODRelevant:1 FolderPath:Obsticles FolderGuid:05583462482018D74864B98792E160FE
 |   |   |- [+] [ 39]
 |   |   |   |- Guid:BF80722247EE9B7D560935A6D797B94E BaseClass: NativeClass:/Script/Engine.StaticMeshActor Name:StaticMeshActor_UAID_D4548B0A710B287801_2094700955 Label:SM_Cylinder2 SpatiallyLoaded:1 Bounds:IsValid=true, Min=(X=1290.000 Y=4210.000 Z=0.000), Max=(X=1690.000 Y=4610.000 Z=400.000) RuntimeGrid:None EditorOnly:0 RuntimeOnly:0 HLODRelevant:1
 |   |   |- [+] [ 40]
 |   |   |   |- Guid:BDF6BEAA4778522030C714BB2F672659 BaseClass: NativeClass:/Script/Engine.StaticMeshActor Name:StaticMeshActor_UAID_D4548B0A710B297801_1131365143 Label:SM_Ramp14 SpatiallyLoaded:1 Bounds:IsValid=true, Min=(X=1990.000 Y=2810.000 Z=-10.000), Max=(X=2490.000 Y=3210.000 Z=390.000) RuntimeGrid:None EditorOnly:0 RuntimeOnly:0 HLODRelevant:1 FolderPath:Obsticles FolderGuid:05583462482018D74864B98792E160FE
 |   |   |- [+] [ 41]
 |   |   |   |- Guid:1742DF43475F097453197AA79C7473D9 BaseClass: NativeClass:/Script/Engine.SkyLight Name:SkyLight_1 Label:SkyLight SpatiallyLoaded:0 Bounds:IsValid=true, Min=(X=0.000 Y=0.000 Z=690.000), Max=(X=0.000 Y=0.000 Z=690.000) RuntimeGrid:None EditorOnly:0 RuntimeOnly:0 HLODRelevant:0 FolderPath:Lighting FolderGuid:4C9334684BA61B42C769F799D2576455
 |   |   |- [+] [ 42]
 |   |   |   |- Guid:9722404148D3C68A81F6D1AE5541FBEB BaseClass: NativeClass:/Script/Engine.StaticMeshActor Name:StaticMeshActor_UAID_D4548B0A710B297801_2119625155 Label:SM_Cylinder6 SpatiallyLoaded:1 Bounds:IsValid=true, Min=(X=180.000 Y=200.000 Z=390.000), Max=(X=380.000 Y=400.000 Z=391.000) RuntimeGrid:None EditorOnly:0 RuntimeOnly:0 HLODRelevant:1
 |   |   |- [+] [ 43]
 |   |   |   |- Guid:6252C7D64ACF162A73EE65B11FE214D1 BaseClass: NativeClass:/Script/Engine.SkyAtmosphere Name:SkyAtmosphere_1 Label:SkyAtmosphere SpatiallyLoaded:0 Bounds:IsValid=true, Min=(X=0.000 Y=0.000 Z=1020.000), Max=(X=0.000 Y=0.000 Z=1020.000) RuntimeGrid:None EditorOnly:0 RuntimeOnly:0 HLODRelevant:0 FolderPath:Lighting FolderGuid:4C9334684BA61B42C769F799D2576455
 |   |   |- [+] [ 44]
 |   |   |   |- Guid:C9A08DB2440C6D0FDA0D368718238C9F BaseClass: NativeClass:/Script/Engine.StaticMeshActor Name:StaticMeshActor_UAID_D4548B0A710B277801_1882142746 Label:SM_Cube SpatiallyLoaded:1 Bounds:IsValid=true, Min=(X=-10.000 Y=100.000 Z=-10.000), Max=(X=490.000 Y=5900.000 Z=390.000) RuntimeGrid:None EditorOnly:0 RuntimeOnly:0 HLODRelevant:1 FolderPath:Obsticles FolderGuid:05583462482018D74864B98792E160FE
 |   |   |- [+] [ 45]
 |   |   |   |- Guid:708BBF6B4CAF958315404F87AAFFF3B5 BaseClass:/Game/Wizard/Blueprints/BP_Wizard.BP_Wizard_C NativeClass:/Script/Engine.Character Name:BP_Wizard_C_UAID_D4548B0A710B117801_2124595872 Label:BP_Wizard1_P1 SpatiallyLoaded:1 Bounds:IsValid=true, Min=(X=990.000 Y=-200.000 Z=460.000), Max=(X=1990.000 Y=800.000 Z=960.000) RuntimeGrid:None EditorOnly:0 RuntimeOnly:0 HLODRelevant:0
 |   |   |- [+] [ 46]
 |   |   |   |- Guid:47E6D90A41AFFA11567D0D820534DED0 BaseClass: NativeClass:/Script/Engine.StaticMeshActor Name:StaticMeshActor_UAID_D4548B0A710B287801_2094697953 Label:SM_Cube16 SpatiallyLoaded:1 Bounds:IsValid=true, Min=(X=2100.000 Y=3600.000 Z=-10.000), Max=(X=2500.000 Y=4000.000 Z=390.000) RuntimeGrid:None EditorOnly:0 RuntimeOnly:0 HLODRelevant:1 FolderPath:Obsticles FolderGuid:05583462482018D74864B98792E160FE
 |   |   |- [+] [ 47]
 |   |   |   |- Guid:833B515243C1EA4F295133929F543595 BaseClass: NativeClass:/Script/Engine.StaticMeshActor Name:StaticMeshActor_UAID_D4548B0A710B287801_1786297936 Label:SM_Cylinder SpatiallyLoaded:1 Bounds:IsValid=true, Min=(X=1290.000 Y=1390.000 Z=0.000), Max=(X=1690.000 Y=1790.000 Z=400.000) RuntimeGrid:None EditorOnly:0 RuntimeOnly:0 HLODRelevant:1
 |   |   |- [+] [ 48]
 |   |   |   |- Guid:73EDC965474AB33D96ABC2A388A5809D BaseClass: NativeClass:/Script/Engine.StaticMeshActor Name:StaticMeshActor_UAID_D4548B0A710B287801_2094695951 Label:SM_Ramp9 SpatiallyLoaded:1 Bounds:IsValid=true, Min=(X=1990.000 Y=5100.000 Z=-10.000), Max=(X=2490.000 Y=5500.000 Z=390.000) RuntimeGrid:None EditorOnly:0 RuntimeOnly:0 HLODRelevant:1 FolderPath:Obsticles FolderGuid:05583462482018D74864B98792E160FE
 |   |   |- [+] [ 49]
 |   |   |   |- Guid:F07559B14CE9ADE1215992AA417A945E BaseClass: NativeClass:/Script/Engine.StaticMeshActor Name:StaticMeshActor_18 Label:SM_Cube2 SpatiallyLoaded:1 Bounds:IsValid=true, Min=(X=0.000 Y=0.000 Z=0.000), Max=(X=3000.000 Y=100.000 Z=1000.000) RuntimeGrid:None EditorOnly:0 RuntimeOnly:0 HLODRelevant:1 FolderPath:Borders FolderGuid:9FE5E8B349AF71F05F2688921F3F2AC5
 |   |   |- [+] [ 50]
 |   |   |   |- Guid:38465B2E43E5D0BA36049F955CAF4C4E BaseClass: NativeClass:/Script/Engine.StaticMeshActor Name:StaticMeshActor_UAID_D4548B0A710B297801_1214539147 Label:SM_ChamferCube8 SpatiallyLoaded:1 Bounds:IsValid=true, Min=(X=1081.867 Y=4992.081 Z=0.063), Max=(X=1218.470 Y=5128.683 Z=100.063) RuntimeGrid:None EditorOnly:0 RuntimeOnly:0 HLODRelevant:0 FolderPath:Interactive FolderGuid:C7BA79F943EAB954570385A5BF387224
 |   |   |- [+] [ 51]
 |   |   |   |- Guid:B25C2C3F40853B6D0937C3800BBC9E88 BaseClass: NativeClass:/Script/Engine.StaticMeshActor Name:StaticMeshActor_UAID_D4548B0A710B287801_1383215927 Label:SM_Ramp2 SpatiallyLoaded:1 Bounds:IsValid=true, Min=(X=1990.000 Y=100.000 Z=390.000), Max=(X=2390.000 Y=500.000 Z=590.000) RuntimeGrid:None EditorOnly:0 RuntimeOnly:0 HLODRelevant:1 FolderPath:Obsticles FolderGuid:05583462482018D74864B98792E160FE
 |   |   |- [+] [ 52]
 |   |   |   |- Guid:7FA5B0B94EEF133B8B5C95B55809D87B BaseClass:/Game/JakeStuff/RandomTrap.RandomTrap_C NativeClass:/Script/Engine.Actor Name:RandomTrap_C_UAID_D85ED30B591C097F01_1706665857 Label:RandomTrap3 SpatiallyLoaded:1 Bounds:IsValid=true, Min=(X=230.000 Y=2210.000 Z=390.000), Max=(X=230.000 Y=2210.000 Z=390.000) RuntimeGrid:None EditorOnly:0 RuntimeOnly:0 HLODRelevant:0
 |   |   |- [+] [ 53]
 |   |   |   |- Guid:EFF08F8748A1D8A7D15781B9E7C2EEDA BaseClass: NativeClass:/Script/Engine.StaticMeshActor Name:StaticMeshActor_UAID_D4548B0A710B287801_2094689947 Label:SM_Cube14 SpatiallyLoaded:1 Bounds:IsValid=true, Min=(X=490.000 Y=5500.000 Z=-10.000), Max=(X=2490.000 Y=5900.000 Z=390.000) RuntimeGrid:None EditorOnly:0 RuntimeOnly:0 HLODRelevant:1 FolderPath:Obsticles FolderGuid:05583462482018D74864B98792E160FE
 |   |   |- [+] [ 54]
 |   |   |   |- Guid:375514874D158AF800A9599AF6595664 BaseClass: NativeClass:/Script/Engine.StaticMeshActor Name:StaticMeshActor_UAID_D4548B0A710B287801_2006126942 Label:SM_Cube12 SpatiallyLoaded:1 Bounds:IsValid=true, Min=(X=2090.000 Y=2000.000 Z=-10.000), Max=(X=2490.000 Y=2400.000 Z=390.000) RuntimeGrid:None EditorOnly:0 RuntimeOnly:0 HLODRelevant:1 FolderPath:Obsticles FolderGuid:05583462482018D74864B98792E160FE
 |   |   |- [+] [ 55]
 |   |   |   |- Guid:E9A7CC6F4BA1231ED60208AB9C648293 BaseClass: NativeClass:/Script/Engine.StaticMeshActor Name:StaticMeshActor_44 Label:SM_ChamferCube3 SpatiallyLoaded:1 Bounds:IsValid=true, Min=(X=671.512 Y=1364.945 Z=0.063), Max=(X=808.115 Y=1501.548 Z=100.063) RuntimeGrid:None EditorOnly:0 RuntimeOnly:0 HLODRelevant:0 FolderPath:Interactive cubes FolderGuid:4A4BEB094627B72155B91EA26F7A65BE
 |   |   |- [+] [ 56]
 |   |   |   |- Guid:497D4E254F036E70513B74A40ACB4A60 BaseClass: NativeClass:/Script/Engine.StaticMeshActor Name:StaticMeshActor_UAID_D4548B0A710B297801_2131034157 Label:SM_Cylinder8 SpatiallyLoaded:1 Bounds:IsValid=true, Min=(X=2590.000 Y=5610.000 Z=390.000), Max=(X=2790.000 Y=5810.000 Z=391.000) RuntimeGrid:None EditorOnly:0 RuntimeOnly:0 HLODRelevant:1
 |   |   |- [+] [ 57]
 |   |   |   |- Guid:86C4017B434D0AF5ACFC179906AE325A BaseClass: NativeClass:/Script/Engine.StaticMeshActor Name:StaticMeshActor_UAID_D4548B0A710B297801_2131033156 Label:SM_Cylinder7 SpatiallyLoaded:1 Bounds:IsValid=true, Min=(X=1390.000 Y=5610.000 Z=590.000), Max=(X=1590.000 Y=5810.000 Z=591.000) RuntimeGrid:None EditorOnly:0 RuntimeOnly:0 HLODRelevant:1
 |   |   |- [+] [ 58]
 |   |   |   |- Guid:8069BD25448B58C1666D2EBE3F911FD2 BaseClass: NativeClass:/Script/Engine.StaticMeshActor Name:StaticMeshActor_UAID_D4548B0A710B287801_2006131945 Label:SM_QuarterCylinder2 SpatiallyLoaded:1 Bounds:IsValid=true, Min=(X=1990.000 Y=2000.000 Z=490.000), Max=(X=2090.000 Y=2400.000 Z=590.000) RuntimeGrid:None EditorOnly:0 RuntimeOnly:0 HLODRelevant:1
 |   |   |- [+] [ 59]
 |   |   |   |- Guid:BAC22B47471E9662F77D869D8EE8EB64 BaseClass:/Game/Wizard/Blueprints/BP_Wizard.BP_Wizard_C NativeClass:/Script/Engine.Character Name:BP_Wizard_C_UAID_D4548B0A710B127801_1095777049 Label:BP_Wizard3_P0 SpatiallyLoaded:1 Bounds:IsValid=true, Min=(X=990.000 Y=5210.000 Z=460.000), Max=(X=1990.000 Y=6210.000 Z=960.000) RuntimeGrid:None EditorOnly:0 RuntimeOnly:0 HLODRelevant:0
 |   |   |- [+] [ 60]
 |   |   |   |- Guid:77F893B3468595EE782136AD620D7EF4 BaseClass: NativeClass:/Script/Engine.VolumetricCloud Name:VolumetricCloud_0 Label:VolumetricCloud SpatiallyLoaded:0 Bounds:IsValid=true, Min=(X=0.000 Y=0.000 Z=820.000), Max=(X=0.000 Y=0.000 Z=820.000) RuntimeGrid:None EditorOnly:0 RuntimeOnly:0 HLODRelevant:0 FolderPath:Lighting FolderGuid:4C9334684BA61B42C769F799D2576455
 |   |   |- [+] [ 61]
 |   |   |   |- Guid:546ACEA449A70E444BD39C87FE274140 BaseClass: NativeClass:/Script/Engine.StaticMeshActor Name:StaticMeshActor_UAID_D4548B0A710B287801_2094692949 Label:SM_Ramp7 SpatiallyLoaded:1 Bounds:IsValid=true, Min=(X=1990.000 Y=5500.000 Z=390.000), Max=(X=2390.000 Y=5900.000 Z=590.000) RuntimeGrid:None EditorOnly:0 RuntimeOnly:0 HLODRelevant:1 FolderPath:Obsticles FolderGuid:05583462482018D74864B98792E160FE
 |   |   |- [+] [ 62]
 |   |   |   |- Guid:5671A32544BE3FD3EFF5FFAA4CBA0D59 BaseClass: NativeClass:/Script/Engine.StaticMeshActor Name:StaticMeshActor_UAID_D4548B0A710B297801_1196537144 Label:SM_ChamferCube6 SpatiallyLoaded:1 Bounds:IsValid=true, Min=(X=1671.867 Y=3612.081 Z=0.063), Max=(X=1808.470 Y=3748.683 Z=100.063) RuntimeGrid:None EditorOnly:0 RuntimeOnly:0 HLODRelevant:0 FolderPath:Interactive FolderGuid:C7BA79F943EAB954570385A5BF387224
 |   |   |- [+] [ 63]
 |   |   |   |- Guid:4F336D9449D3FA1193BC2DAAB0565304 BaseClass: NativeClass:/Script/Engine.StaticMeshActor Name:StaticMeshActor_UAID_D4548B0A710B287801_2094708961 Label:SM_Ramp12 SpatiallyLoaded:1 Bounds:IsValid=true, Min=(X=490.000 Y=3600.000 Z=390.000), Max=(X=890.000 Y=4000.000 Z=590.000) RuntimeGrid:None EditorOnly:0 RuntimeOnly:0 HLODRelevant:1 FolderPath:Obsticles FolderGuid:05583462482018D74864B98792E160FE
 |   |   |- [+] [ 64]
 |   |   |   |- Guid:53544C7946C25E5AE6F9B5BAE67879D2 BaseClass: NativeClass:/Script/Engine.StaticMeshActor Name:StaticMeshActor_UAID_D4548B0A710B287801_2094693950 Label:SM_Ramp8 SpatiallyLoaded:1 Bounds:IsValid=true, Min=(X=590.000 Y=5500.000 Z=390.000), Max=(X=990.000 Y=5900.000 Z=590.000) RuntimeGrid:None EditorOnly:0 RuntimeOnly:0 HLODRelevant:1 FolderPath:Obsticles FolderGuid:05583462482018D74864B98792E160FE
 |   |   |- [+] [ 65]
 |   |   |   |- Guid:5237FBFC4ED9FBF1E418C9B7991BEF44 BaseClass: NativeClass:/Script/Engine.StaticMeshActor Name:StaticMeshActor_UAID_D4548B0A710B287801_1956101940 Label:SM_Cube11 SpatiallyLoaded:1 Bounds:IsValid=true, Min=(X=880.000 Y=2000.000 Z=-10.000), Max=(X=980.000 Y=2400.000 Z=490.000) RuntimeGrid:None EditorOnly:0 RuntimeOnly:0 HLODRelevant:1 FolderPath:Obsticles FolderGuid:05583462482018D74864B98792E160FE
 |   |   |- [+] [ 66]
 |   |   |   |- Guid:4356C64C4BEA7966EA86F6ACDA8E9838 BaseClass:/Game/Wizard/Blueprints/BP_Wizard.BP_Wizard_C NativeClass:/Script/Engine.Character Name:BP_Wizard_C_UAID_D4548B0A710B2A7801_1435104335 Label:BP_Wizard2_P1 SpatiallyLoaded:1 Bounds:IsValid=true, Min=(X=2190.000 Y=-200.000 Z=260.000), Max=(X=3190.000 Y=800.000 Z=760.000) RuntimeGrid:None EditorOnly:0 RuntimeOnly:0 HLODRelevant:0
 |   |   |- [+] [ 67]
 |   |   |   |- Guid:BA2F56A24A4D60663F48CA817D33B295 BaseClass: NativeClass:/Script/Engine.StaticMeshActor Name:StaticMeshActor_UAID_D4548B0A710B287801_1202889925 Label:SM_Cube9 SpatiallyLoaded:1 Bounds:IsValid=true, Min=(X=990.000 Y=100.000 Z=390.000), Max=(X=1990.000 Y=500.000 Z=590.000) RuntimeGrid:None EditorOnly:0 RuntimeOnly:0 HLODRelevant:1 FolderPath:Obsticles FolderGuid:05583462482018D74864B98792E160FE
 |   |   |- [+] [ 68]
 |   |   |   |- Guid:1179F3DE448B347019826086C5ABC6C2 BaseClass: NativeClass:/Script/Engine.StaticMeshActor Name:StaticMeshActor_UAID_D4548B0A710B297801_1196540145 Label:SM_ChamferCube2 SpatiallyLoaded:1 Bounds:IsValid=true, Min=(X=1658.118 Y=3770.068 Z=0.063), Max=(X=1786.290 Y=3898.239 Z=100.063) RuntimeGrid:None EditorOnly:0 RuntimeOnly:0 HLODRelevant:0 FolderPath:Interactive FolderGuid:C7BA79F943EAB954570385A5BF387224
 |   |   |- [+] [ 69]
 |   |   |   |- Guid:267DB9174DD522C6B42609B65BCB70F1 BaseClass: NativeClass:/Script/Engine.StaticMeshActor Name:StaticMeshActor_UAID_D4548B0A710B287801_1853831938 Label:SM_Ramp5 SpatiallyLoaded:1 Bounds:IsValid=true, Min=(X=480.000 Y=2000.000 Z=390.000), Max=(X=880.000 Y=2400.000 Z=590.000) RuntimeGrid:None EditorOnly:0 RuntimeOnly:0 HLODRelevant:1 FolderPath:Obsticles FolderGuid:05583462482018D74864B98792E160FE
 |   |   |- [+] [ 70]
 |   |   |   |- Guid:CCDD89584E0A9025F52AEDA51D60CA54 BaseClass: NativeClass:/Script/NavigationSystem.NavMeshBoundsVolume Name:NavMeshBoundsVolume_1 Label:NavMeshBoundsVolume SpatiallyLoaded:0 Bounds:IsValid=true, Min=(X=-3289.703 Y=-2462.416 Z=-308.558), Max=(X=6310.297 Y=8637.584 Z=1191.442) RuntimeGrid:None EditorOnly:0 RuntimeOnly:0 HLODRelevant:0
 |   |   |- [+] [ 71]
 |   |   |   |- Guid:147C8D134B12D635012D5F8C57D2C96F BaseClass: NativeClass:/Script/Engine.PostProcessVolume Name:PostProcessVolume_1 Label:PostProcessVolume SpatiallyLoaded:0 Bounds:IsValid=true, Min=(X=0.000 Y=0.000 Z=400.000), Max=(X=200.000 Y=200.000 Z=600.000) RuntimeGrid:None EditorOnly:0 RuntimeOnly:0 HLODRelevant:0
 |   |   |- [+] [ 72]
 |   |   |   |- Guid:2169CB5C470E0E674279BA96829753DD BaseClass: NativeClass:/Script/Engine.StaticMeshActor Name:StaticMeshActor_17 Label:SM_Cube SpatiallyLoaded:1 Bounds:IsValid=true, Min=(X=0.000 Y=0.000 Z=-50.000), Max=(X=3000.000 Y=6000.000 Z=-0.000) RuntimeGrid:None EditorOnly:0 RuntimeOnly:0 HLODRelevant:1 FolderPath:Borders FolderGuid:9FE5E8B349AF71F05F2688921F3F2AC5
 |   |   |- [+] [ 73]
 |   |   |   |- Guid:CF238EEB4FB491D5F68BCB97A8875C44 BaseClass:/Game/Wizard/Blueprints/BP_Wizard.BP_Wizard_C NativeClass:/Script/Engine.Character Name:BP_Wizard_C_UAID_D4548B0A710BE67701_1228894304 Label:BP_Wizard3_P1 SpatiallyLoaded:1 Bounds:IsValid=true, Min=(X=-220.000 Y=-200.000 Z=260.000), Max=(X=780.000 Y=800.000 Z=760.000) RuntimeGrid:None EditorOnly:0 RuntimeOnly:0 HLODRelevant:0
 |- ContainerInstances:
 |- [+] MainContainer:
 |   |-        ID: 0x0000000000000000
 |   |-    Bounds: IsValid=false, Min=(X=0.000 Y=0.000 Z=0.000), Max=(X=0.000 Y=0.000 Z=0.000)
 |   |- Transform: 0.000000,0.000000,0.000000|0.000000,0.000000,-0.000000|1.000000,1.000000,1.000000
 |   |- Container: /Game/Wizard/Maps/TopDownMap
----------------------------------------------------------------------------------------------------------------
TopDownMap - Persistent Level
----------------------------------------------------------------------------------------------------------------
Always loaded Actor Count: 82 

----------------------------------------------------------------------------------------------------------------
TopDownMap - Runtime Spatial Hash - Streaming Grid - MainGrid
----------------------------------------------------------------------------------------------------------------
            Origin: X=0.000 Y=0.000 Z=0.000
         Cell Size: 12800
      World Bounds: IsValid=false, Min=(X=0.000 Y=0.000 Z=0.000), Max=(X=0.000 Y=0.000 Z=0.000)
     Loading Range: 25600.00
Block Slow Loading: No
 ClientOnlyVisible: No

[+] Grid Levels: 1
 |- Level  0: Cell Count    0 | Cell Size   12800 | Actor Count    0 (0.0%)

[+] Content of Grid Level 0

